<?xml version="1.0" encoding="UTF-8"?>
<session version="1.0">
<refactoring accessors="true" comment="Delete element from project &apos;spring-holamundo&apos;&#x0A;- Original project: &apos;spring-holamundo&apos;&#x0A;- Original element: &apos;ApplicationContext.xml&apos;" description="Delete element" element1="src/main/resources/ApplicationContext.xml" elements="0" flags="589830" id="org.eclipse.jdt.ui.delete" resources="1" stamp="1481601418319" subPackages="false" version="1.0"/>
</session>